﻿[
	{
    "_id":"c-100",
    "_parentId":"b-100",
    "_type":"component",
    "_component":"branchChart",
    "_classes":"",
    "title":"",
    "displayTitle":"",
    "body":"Du hast bereits Werbeanzeigen auf Facebook erstellt und bist mit den drei Hauptkomponenten vertraut: Kampagnen, Anzeigengruppen und Werbeanzeigen. Wir verwenden den Oberbegriff <strong>Werbeobjekte</strong>.",
    "instruction":"",
    "componentWidth": "80%",
    "verticalPadding": "",
    "align": "center",
    "fontSizeText":"1.5vmin",
    "fontSizeCaption":"1.5vmin",
    "fontColorText":"#ffffff",
    "fontColorCaption":"#000",
    "borderColor": "#ef4025",
    "backgroundColor": "#4267b2",
    "topText": "Kampagne",
    "topCaption": "Zur Kampagne gehört das Werbeziel",
    "midLeftText": "Anzeigengruppe",
    "midRightText": "Anzeigengruppe",
    "midCaption": "Zur Anzeigengruppe gehören Zielgruppe, Platzierungen, <br>Auslieferungszeitplan und Budget",
    "bottomLeftOuterText": "Werbeanzeige",
    "bottomLeftInnerText": "Werbeanzeige",
    "bottomRightOuterText": "Werbeanzeige",
    "bottomRightInnerText": "Werbeanzeige",
    "bottomCaption": "Zur Werbeanzeige gehören Gestaltung und Messaging"
	},
	{
		"_id": "c-110",
		"_parentId": "b-110",
		"_type": "component",
		"_component": "text",
		"_classes": "",
		"_layout": "full",
		"title": "Bearbeitung und Aktualisierung auf Kampagnen-, Anzeigengruppen- oder Werbeanzeigenebene",
		"displayTitle": "",
		"body": "Auf <strong>Kampagnenebene</strong> legst du das Marketingziel (oder Geschäftsziel) fest, auf <strong>Anzeigengruppenebene</strong> gibst du die Auslieferungsoptionen an (Zielgruppe, Platzierungen, Zeitplan und Budget) und auf <strong>Werbeanzeigenebene</strong> fügst du Gestaltungselemente und Text hinzu.<br><br>In diesem Kurs erfährst du, wie du viele dieser Optionen bearbeitest und aktualisierst. <br><br>Wenn du gerade erst in Facebook-Werbung einsteigst, empfehlen sich zuerst die folgenden Blueprint-Kurse, bevor du mit diesem weitermachst:<br><br><ul><em><li>Facebook-Werbeanzeigen erstellen</li><li>Werbeanzeigenauktion und -auslieferung: Übersicht</li></em></ul>",
		"instruction": "",
		"_isComplete": true,
		"_pageLevelProgress": {
			"_isEnabled": false
		}
	},

	{
		"_id": "c-120",
		"_parentId": "b-120",
		"_type": "component",
		"_component": "text",
		"_classes": "",
		"_layout": "full",
		"title": "Lernziele",
		"displayTitle": "Lernziele",
		"body": "Nach Abschluss dieses Kurses kannst du:<ul> </li><li>mit dem Werbeanzeigenmanager vorhandene Kampagnen, Anzeigengruppen und Werbeanzeigen finden</li><li>Kampagnen, Anzeigengruppen und Werbeanzeigen duplizieren</li><li>Anzeigengruppen und Werbeanzeigen einzeln oder in Gruppen bearbeiten</li><li>mit dem Tool zum Importieren/Exportieren Werbeanzeigen erstellen und bearbeiten</li><li>dir einen Einblick in erweiterte Maßnahmen wie Split-Tests, Kampagnen-Markierungen und automatische Regeln verschaffen</li></ul>",
		"instruction": "",
		"_isComplete": true,
		"_pageLevelProgress": {
			"_isEnabled": true
		}
	},
	{
		"_id":"c-199",
		"_parentId":"b-199",
		"_type":"component",
		"_component":"co-jump",
		"_classes":"color-test",
		"title": "Als Nächstes",
		"_preLinkBody":"Wir kommen jetzt zum ",
		"_linkBody":"Identifizieren und Suchen bearbeitbarer Elemente",
		"_postLinkBody":" von Facebook-Werbeanzeigen und erklären, wie du sie im Werbeanzeigenmanager finden und anpassen kannst.",
		"_link":"#/id/co-200",
		"_graphic":"adapt/css/assets/icon_nextPage.png",
		"_isComplete": true,
		"_pageLevelProgress": {
			"_isEnabled": false
		}
	},




	{
		"_id": "c-200",
		"_parentId": "b-200",
		"_type": "component",
		"_component": "text",
		"_classes": "",
		"_layout": "full",
		"title": "Einleitung",
		"displayTitle": "",
		"body": "Auch wenn die Kampagne bereits gestartet ist, kannst du Messaging, Anzeigengestaltung, Budget, Platzierung, Zeitplan und Targeting anpassen.",
		"instruction": "",
		"_isComplete": false,
		"_pageLevelProgress": {
			"_isEnabled": false
		}
	},
	{
		"_id": "c-200b",
		"_parentId": "b-200",
		"_type": "component",
		"_component": "graphic",
		"_classes": "",
		"_layout": "full",
		"title": "Werbeanzeigenmanager durchsuchen",
		"displayTitle": "Vorhandenen Content im Werbeanzeigenmanager finden",
		"body": "Zuerst musst du ein Element finden, damit du es bearbeiten kannst. Du kannst zu den entsprechenden Tabs navigieren und nach Kampagnen, Anzeigengruppen und Werbeanzeigen suchen.",
		"instruction": "",
		"_graphic": {
			"src": "course/en/images/am_tabs.png",
			"alt": "Suchfunktion"
		},
		"_isComplete": false,
		"_pageLevelProgress": {
			"_isEnabled": true
		}
	},
	{
		"_id": "c-210",
		"_parentId": "b-210",
		"_type": "component",
		"_component": "graphic",
		"_classes": "",
		"_layout": "full",
		"title": "Suche im Werbeanzeigenmanager",
		"displayTitle": "",
		"body": "<div style='margin-top:-2.5em;'>Wenn du eine große Zahl von Werbeobjekten verwaltest, helfen dir drei zusätzliche Optionen im Werbeanzeigenmanager beim Auffinden bestimmter Werbeobjekte.<br><br><br><h2>Suchen</h2><br>Suche nach dem Namen oder der ID-Nummer einer Kampagne, Anzeigengruppe oder Werbeanzeige. </div>",
		"instruction": "",
		"_graphic": {
			"src": "course/en/images/am_search.png",
			"alt": "Suchfunktion"
		},
		"_isComplete": false,
		"_pageLevelProgress": {
			"_isEnabled": true
		}
	},
	{
		"_id": "c-220",
		"_parentId": "b-220",
		"_type": "component",
		"_component": "graphic",
		"_classes": "",
		"_layout": "full",
		"title": "Filtern im Werbeanzeigenmanager",
		"displayTitle": "",
		"body": "<h2>Filtern</h2><br>Filtere nach Werbeobjekten, basierend auf Auslieferung, Ziel, Buchungsart, Platzierung und anderen Attributen.",
		"instruction": "",
		"_graphic": {
			"src": "course/en/images/am_filter.png",
			"alt": "Werbeobjekte filtern"
		},
		"_isComplete": false,
		"_pageLevelProgress": {
			"_isEnabled": true
		}
	},

	{
		"_id": "c-230",
		"_parentId": "b-230",
		"_type": "component",
		"_component": "text",
		"_classes": "",
		"_layout": "full",
		"title": "Mehrere Filter anwenden",
		"displayTitle": "",
		"body": "Du kannst mehrere Filter anwenden, indem du neben dem Button „<strong>Filter</strong>“ auf das <span style='padding:.2em .4em;background-color:#C4D2E7;'><strong>+</strong></span> klickst. ",
		"instruction": "",
		"_isComplete": false,
		"_pageLevelProgress": {
			"_isEnabled": false
		}
	},
	{
		"_id": "c-230l",
		"_parentId": "b-230",
		"_type": "component",
		"_component": "graphic",
		"_classes": "",
		"_layout": "left",
		"title": "Filter hinzufügen",
		"displayTitle": "",
		"body": "",
		"instruction": "",
		"_graphic": {
			"src": "course/en/images/filter_add.png",
			"alt": "Filter hinzufügen"
		},
		"_isComplete": false,
		"_pageLevelProgress": {
			"_isEnabled": false
		}
	},

	{
		"_id": "c-230r",
		"_parentId": "b-230",
		"_type": "component",
		"_component": "graphic",
		"_classes": "",
		"_layout": "right",
		"title": "Mehrere Filter",
		"displayTitle": "",
		"body": "",
		"instruction": "",
		"_graphic": {
			"src": "course/en/images/filter_multi.png",
			"alt": "Mehrere Filter hinzufügen"
		},
		"_isComplete": false,
		"_pageLevelProgress": {
			"_isEnabled": false
		}
	},
	{
		"_id": "c-240",
		"_parentId": "b-240",
		"_type": "component",
		"_component": "graphic",
		"_classes": "",
		"_layout": "full",
		"title": "Mit dem Statistiken-Tool nach Datum suchen",
		"displayTitle": "",
		"body": "<h2>Statistiken-Tool</h2><br> Damit kannst du Daten finden und vergleichen. Ein Händler kann sich beispielsweise die effektivsten Anzeigen zum Schulanfang aus den Vorjahren genauer ansehen, bevor er die diesjährige Kampagne startet.",
		"instruction": "",
		"_graphic": {
			"src": "course/en/images/stats_date.png",
			"alt": "Nach Datumsbereich anzeigen"
		},
		"_isComplete": false,
		"_pageLevelProgress": {
			"_isEnabled": true
		}
	},
	{
		"_id":"c-299",
		"_parentId":"b-299",
		"_type":"component",
		"_component":"co-jump",
		"_classes":"color-test",
		"title":"Weiter",
		"_preLinkBody":"Du kannst im Handumdrehen neue Werbeanzeigen entwickeln, indem du bereits erstellte wiederverwendest und aktualisierst. Deshalb sehen wir uns an, wie das ",
		"_linkBody":"Duplizieren und Ändern vorhandener Werbeobjekte",
		"_postLinkBody":" im Werbeanzeigenmanager funktioniert.",
		"_link":"#/id/co-300",
		"_graphic":"adapt/css/assets/icon_nextPage.png",
		"_isComplete": true,
		"_pageLevelProgress": {
			"_isEnabled": false
		}
	},





	{
		"_id":"c-300",
		"_parentId":"b-300",
		"_type":"component",
		"_component":"graphic",
		"_classes":"",
		"_layout":"full",
		"title":"Duplizieren und ändern",
		"displayTitle":"",
		"body":"Wenn du Kampagnenentwürfe erstellst, generierst du leere Werbeobjekte. Du kannst aber auch vorhandene Kampagnen, Anzeigengruppen und Werbeanzeigen mit der fertigen Gestaltung duplizieren. Dann änderst du diese Version einfach und das Original bleibt erhalten. In jedem Fall kannst du angeben, wie viele Versionen erstellt werden sollen.<br><br>Kombiniere das Duplizieren und Modifizieren, um allgemeine Probleme zu lösen:<br><ul><li>Um eine vorhandene Werbeanzeige zwar geringfügig zu aktualisieren, aber die Kennzahlen für das Original und neue Versionen getrennt zu halten.</li><li>Um zu Anzeigengestaltung, Zielgruppen oder Platzierungen einen A/B-Test durchzuführen. </li></ul>",
		"instruction":"",
		"_graphic": {
			"alt": "Werbeanzeigen duplizieren",
			"src": "course/en/images/duplicate.png"
		},
		"_isComplete": false,
		"_pageLevelProgress": {
			"_isEnabled": true
		}
	},
	{
		"_id":"c-310",
		"_parentId":"b-310",
		"_type":"component",
		"_component":"text",
		"_classes":"",
		"_layout":"full",
		"title":"Budgets für Duplikate",
		"displayTitle":"",
		"body":"Beim Duplizieren einer Kampagne werden auch alle Anzeigengruppen und Werbeanzeigen dieser Kampagne dupliziert. Für duplizierte Kampagnen gilt dasselbe Ausgabenlimit wie für die ursprüngliche Kampagne. Duplizierte Anzeigengruppen enthalten alle Werbeanzeigen des Originals und greifen auf dasselbe Budget zurück wie das Original. Duplizierte Werbeanzeigen verwenden das Budget, das zur Anzeigengruppe gehört, in der sie sich befinden. Das Gesamtbudget wird durch sie nicht erhöht. <br><br>Beim Erstellen eines Duplikats kannst du ein neues Budget festlegen. Außerdem kannst du die Budgets aller Anzeigengruppen jederzeit ändern. Denke daran, dass du der Rechnungsstellung zustimmst, wenn du im Werbeanzeigenmanager auf einen grünen Button klickst.<br><br><div class='textCompWapper'><div class='textCompLeftDiv'><img src='course/en/images/tip.png' class='textCompImageCenter'></div><!-- .textCompLeftDiv end --><div class='textCompRightDiv'>Es ist nicht möglich, das Ziel einer vorhandenen Kampagne zu bearbeiten oder das Ziel einer duplizierten Kampagne zu ändern.<br><br>Werbetreibende können jedoch vorhandene Anzeigengruppen oder Werbeanzeigen in neue oder vorhandene Kampagnen mit anderen Zielen als im Original duplizieren. </div><!-- .textCompRightDiv end --></div><!-- .textCompWrapper end --><br><br>Bei jedem Duplizieren einer Kampagne, Anzeigengruppe oder Werbeanzeige kannst du angeben, wie viele Versionen erstellt werden sollen, und jede davon individuell benennen. Außerdem kannst du festlegen, ob sie aktiv ausgeliefert werden oder denselben Status wie das Original erhalten soll.",
		"instruction":"",
		"_isComplete": true,
		"_pageLevelProgress": {
			"_isEnabled": true
		}
	},
	{
		"_id":"c-320l",
		"_parentId":"b-320",
		"_type":"component",
		"_component":"graphic",
		"_classes":"texture_concrete",
		"_layout":"left",
		"title":"Eine Kampagne duplizieren",
		"displayTitle":"",
		"body":"",
		"instruction":"",
		"_graphic": {
			"alt": "Kampagne duplizieren",
			"src": "course/en/images/dupe_campaign.png"
		},
		"_isComplete": false,
		"_pageLevelProgress": {
			"_isEnabled": true
		}
	},
	{
		"_id":"c-320r",
		"_parentId":"b-320",
		"_type":"component",
		"_component":"text",
		"_classes":"texture_wood",
		"_layout":"right",
		"title":"Eine Kampagne duplizieren",
		"displayTitle":"",
		"body":"Du kannst eine Kampagne duplizieren:<ul><li>mit demselben Werbeziel.</li></ul>",
		"instruction":"",
		"_isComplete": true,
		"_pageLevelProgress": {
			"_isEnabled": false
		}
	},
	{
		"_id":"c-330l",
		"_parentId":"b-330",
		"_type":"component",
		"_component":"graphic",
		"_classes":"",
		"_layout":"left",
		"title":"Eine Anzeigengruppe duplizieren",
		"displayTitle":"",
		"body":"",
		"instruction":"",
		"_graphic": {
			"alt": "Anzeigengruppe duplizieren",
			"src": "course/en/images/dupe_adset.png"
		},
		"_isComplete": true,
		"_pageLevelProgress": {
			"_isEnabled": true
		}
	},
	{
		"_id":"c-330r",
		"_parentId":"b-330",
		"_type":"component",
		"_component":"text",
		"_classes":"texture_wood",
		"_layout":"right",
		"title":"Eine Anzeigengruppe duplizieren",
		"displayTitle":"",
		"body":"Du kannst eine Anzeigengruppe duplizieren in:<ul><li>die Kampagne, die die ursprüngliche Anzeigengruppe enthält.</li><li>eine andere vorhandene Kampagne.</li><li>eine brandneue Kampagne.</li></ul>",
		"instruction":"",
		"_isComplete": true,
		"_pageLevelProgress": {
			"_isEnabled": false
		}
	},
	{
		"_id":"c-340l",
		"_parentId":"b-340",
		"_type":"component",
		"_component":"graphic",
		"_classes":"",
		"_layout":"left",
		"title":"Eine Werbeanzeige duplizieren",
		"displayTitle":"",
		"body":"",
		"instruction":"",
		"_graphic": {
			"alt": "Kampagne duplizieren",
			"src": "course/en/images/dupe_ad.png"
		},
		"_isComplete": false,
		"_pageLevelProgress": {
			"_isEnabled": true
		}
	},
	{
		"_id":"c-340r",
		"_parentId":"b-340",
		"_type":"component",
		"_component":"text",
		"_classes":"texture_wood",
		"_layout":"right",
		"title":"Werbeanzeige duplizieren",
		"displayTitle":"",
		"body":"Du kannst eine Werbeanzeige duplizieren in:<ul><li>eine neue oder vorhandene Kampagne.</li><li>eine neue oder vorhandene Anzeigengruppe.</li><li>mehrere Anzeigengruppen.</li></ul>",
		"instruction":"",
		"_pageLevelProgress": {
			"_isEnabled": false
		},
		"_isComplete": true
	},
	{
		"_id":"c-399",
		"_parentId":"b-399",
		"_type":"component",
		"_component":"co-jump",
		"_classes":"color-test",
		"_preLinkBody":"Im nächsten Abschnitt beschäftigen wir uns mit dem ",
		"_linkBody":"Aktualisieren von Anzeigengestaltung, Zielgruppe, Platzierungen, Budget und Auslieferungszeitplan",
		"_postLinkBody":".",
		"_link":"#/id/co-400",
		"_graphic":"adapt/css/assets/icon_nextPage.png",
		"_pageLevelProgress": {
			"_isEnabled": false
		},
		"_isComplete": true
	},



	{
		"_id":"c-400",
		"_parentId":"b-400",
		"_type":"component",
		"_component":"text",
		"_classes":"",
		"_layout":"full",
		"title":"",
		"displayTitle":"",
		"body":"Nichts ist vollkommen. Deshalb kannst du im Werbeanzeigenmanager Tippfehler oder beschädigte Links korrigieren, dein Budget erhöhen oder herabsetzen und die Auslieferung der Anzeigen-Performance entsprechend anpassen. <br><br>Du kannst Werbeobjekte einzeln, gleichzeitig in Gruppen oder mit dem Bulkimport/-export-Workflow im großen Umfang aktualisieren.",
		"instruction":"",
		"_isComplete": false,
		"_pageLevelProgress": {
			"_isEnabled": false
		}
	},
	{
		"_id":"c-410",
		"_parentId":"b-410",
		"_type":"component",
		"_component":"text",
		"_classes":"",
		"_layout":"full",
		"title":"Datengestützte Entscheidungen treffen",
		"displayTitle":"Datengestützte Entscheidungen treffen",
		"body":"Bevor du Budget oder Auslieferung anpasst, solltest du im Werbeanzeigenmanager die Berichtskennzahlen der Kampagnen, Anzeigengruppen oder Werbeanzeigen überprüfen, die du ändern möchtest. <br><br>Kopiere gegebenenfalls die Kampagnen, Anzeigengruppen oder Werbeanzeigen und bearbeite sie dann (statt sie nur zu bearbeiten). So kannst du mehrere Versionen gleichzeitig schalten und feststellen, welche die besten Reaktionen erhalten. Sobald du ein Werbeobjekt geändert hast, ersetzt die neue Version die alte. Eine Option zum Rückgängigmachen gibt es nicht. Auch die Kennzahlen vor und nach den Bearbeitungen lassen sich nicht unterscheiden.",
		"instruction":"",
		"_pageLevelProgress": {
			"_isEnabled": true
		},
		"_isComplete": false
	},
	{
		"_id":"c-420",
		"_parentId":"b-420",
		"_type":"component",
		"_component":"graphic",
		"_classes":"",
		"_layout":"full",
		"title":"Auslieferung starten und stoppen",
		"displayTitle":"Auslieferung starten und stoppen",
		"body":"Schalte die Werbeanzeigen zum Starten oder Stoppen jeweils ein oder aus. Wenn der Schalter neben deiner Kampagne, Anzeigengruppe oder Werbeanzeige blau ist, ist die Kampagne aktiviert. Stelle den Schalter auf grau um, um die Auslieferung der Kampagne, Anzeigengruppe oder Werbeanzeige zu stoppen.",
		"_graphic": {
			"alt": "Auslieferung ein-/ausschalten",
			"src": "course/en/images/toggle.png"
		},
		"instruction":"",
		"_isComplete": false,
		"_pageLevelProgress": {
			"_isEnabled": true
		}
	},
	{
		"_id":"c-430",
		"_parentId":"b-430",
		"_type":"component",
		"_component":"graphic",
		"_classes":"",
		"_layout":"full",
		"title":"Hierarchie und Auslieferung",
		"displayTitle":"",
		"body":"Beachte Folgendes, um eine Unterbrechung der Anzeigenauslieferung zu vermeiden:<br><ul><li>Wenn du eine Kampagne deaktivierst, werden auch alle Werbeanzeigen und Anzeigengruppen in dieser Kampagne angehalten.</li><li>Wenn du eine Anzeigengruppen deaktivierst, werden alle Werbeanzeigen in dieser Gruppe angehalten. </li><li>Um die Anzeigenauslieferung wieder zu aktivieren, musst du möglicherweise auch die übergeordnete Anzeigengruppe und Kampagne aktivieren.</li></ul><br><br>Ist eine Werbeanzeige oder Anzeigengruppe zwar aktiviert, nicht aber die Kampagne, zu der sie gehört, dann wird die Anzeige nicht ausgeliefert. Entsprechend können keine unvollständigen Kampagnenentwürfe ausgeliefert werden, beispielsweise wenn eine Anzeigengruppe keine Werbeanzeigen enthält.",
		"instruction":"",
		"_graphic": {
			"alt": "Einen Bericht speichern",
			"src": "course/en/images/toggle_exceptions.png"
		},
		"_isComplete": true,
		"_pageLevelProgress": {
			"_isEnabled": false
		}
	},

	{
		"_id":"c-440",
		"_parentId":"b-440",
		"_type":"component",
		"_component":"text",
		"_classes":"",
		"_layout":"full",
		"title":"Auslieferung anpassen",
		"displayTitle":"",
		"body":"Du kannst am Auslieferungszeitplan, am Budget und an der Zielgruppe auf Anzeigengruppenebene bestimmte Änderungen vornehmen: Lies weiter, um mehr zu erfahren.<br><br>Wenn du <a href='https://www.facebook.com/business/help/991073724257797' target='_blank'>Kampagnen, Anzeigengruppen oder Werbeanzeigen</a> löschst, kannst du sie nicht mehr schalten oder wiederherstellen. Berichtsdaten sind weiterhin verfügbar.",
		"instruction":"",
		"_isComplete": false,
		"_pageLevelProgress": {
			"_isEnabled": true
		}
	},
	{
		"_id":"c-450",
		"_parentId":"b-450",
		"_type":"component",
		"_component":"graphic",
		"_classes":"",
		"_layout":"full",
		"title":"Eine einzelne Kampagne, Anzeigengruppe oder Werbeanzeige bearbeiten",
		"displayTitle":"Eine einzelne Kampagne, Anzeigengruppe oder Werbeanzeige bearbeiten",
		"body":"Suche zuerst im Werbeanzeigenmanager das einzelne Werbeobjekt, das du bearbeiten möchtest. Zeige auf seinen Namen, bis der Link „Bearbeiten“ erscheint. ",
		"instruction":"",
		"_graphic": {
			"alt": "Einen Bericht speichern",
			"src": "course/en/images/am_edit.png"
		},
		"_isComplete": false,
		"_pageLevelProgress": {
			"_isEnabled": true
		}
	},
	{
		"_id":"c-452",
		"_parentId":"b-450",
		"_type":"component",
		"_component":"accordion",
		"_classes":"",
		"_layout":"full",
		"title": "Bearbeitung",
		"displayTitle": "",
		"body": "<cite>Denke daran: Wenn du bei einer bereits aktiven Kampagne Targeting-Optionen auf <strong>Anzeigengruppenebene</strong> bearbeitest, lassen sich die vor und nach den Änderungen erzielten Ergebnisse nicht mehr unterscheiden. Wenn es wichtig ist, dass du die Wirkung deiner Änderungen siehst, solltest du die Anzeigengruppe anhalten. Dupliziere sie in der Kampagne, zu der sie gehört, nimm deine Aktualisierungen vor und aktiviere dann die neue Anzeigengruppe.</cite>",
		"instruction": "",
		"_items": [
			{
				"title": "Eine Kampagne bearbeiten",
				"body": "Auf Kampagnenebene kannst du den Namen und das Ausgabenlimit der Kampagne bearbeiten. Das Ziel einer vorhandenen Kampagne kann nicht geändert werden.<br><br><img src='course/en/images/am_edit_campaign.png' alt=\"\">"
			},
			{
				"title": "Eine Anzeigengruppe bearbeiten",
				"body": "Du kannst eine beliebige Reihe von Optionen auf Anzeigengruppenebene bearbeiten: Budget und Zeitplan, Zielgruppe, Platzierung, Optimierungen und Auslieferung.<br><br><img src='course/en/images/am_edit_set.png' alt=\"\"><br>An dieser Stelle änderst du objektspezifische Details wie beispielsweise das Angebot, das mit einer Conversion Ad verbunden ist."
			},
			{
				"title": "Eine Werbeanzeige bearbeiten",
				"body": "Bearbeite auf Werbeanzeigenebene den Namen und die Gestaltung einer Anzeige und zeige eine Vorschau der Änderungen an.<br><br><img src='course/en/images/am_edit_ad.png' alt=\"\">"
			}
		],
		"_isComplete": true,
		"_pageLevelProgress": {
			"_isEnabled": false
		}
 },

	{
		"_id":"c-460",
		"_parentId":"b-460",
		"_type":"component",
		"_component":"graphic",
		"_classes":"",
		"_layout":"full",
		"title":"Mehrere Werbeobjekte gleichzeitig bearbeiten",
		"displayTitle":"Mehrere Werbeobjekte gleichzeitig bearbeiten",
		"body":"Um mehrere Werbeobjekte gleichzeitig zu bearbeiten, aktiviere die Kontrollkästchen der jeweiligen Objekte, zeige auf den Namen, um den „Bearbeiten“-Link anzuzeigen, und klicke darauf.",
		"instruction":"",
		"_graphic": {
			"alt": "Einen Bericht speichern",
			"src": "course/en/images/am_edit_multi.png"
		},
		"_isComplete": false,
		"_pageLevelProgress": {
			"_isEnabled": true
		}
	},
	{
		"_id":"c-462",
		"_parentId":"b-460",
		"_type":"component",
		"_component":"text",
		"_classes":"",
		"_layout":"full",
		"title":"Mehrere Werbeobjekte gleichzeitig bearbeiten",
		"displayTitle":"",
		"body":"Wenn du mehrere Kampagnen, Anzeigengruppen oder Werbeanzeigen bearbeitest, beachte bitte, dass deine Änderungen an allen ausgewählten Kampagnen, Anzeigengruppen oder Werbeanzeigen vorgenommen werden. Wenn du also die Zielgruppen zweier Anzeigengruppen gleichzeitig bearbeitest, werden alle Werbeanzeigen dieser Anzeigengruppen an die neue Zielgruppe ausgeliefert.",
		"instruction":"",
		"_pageLevelProgress": {
			"_isEnabled": false
		},
		"_isComplete": false
	},
	{
		"_id":"c-499",
		"_parentId":"b-499",
		"_type":"component",
		"_component":"co-jump",
		"_classes":"color-test",
		"_preLinkBody":"Große Organisationen und Werbeagenturen schalten oft Tausende von Facebook-Werbeanzeigen gleichzeitig. Werbetreibende haben die Möglichkeit, durch ",
		"_linkBody":"Importieren und Exportieren von Werbeobjekten",
		"_postLinkBody":" in großem Umfang das gleichzeitige Erstellen mehrerer Werbeanzeigen zu rationalisieren.",
		"_link":"#/id/co-500",
		"_graphic":"adapt/css/assets/icon_nextPage.png",
		"_pageLevelProgress": {
			"_isEnabled": false
		},
		"_isComplete": false
	},


	{
		"_id":"c-500",
		"_parentId":"b-500",
		"_type":"component",
		"_component":"text",
		"_classes":"",
		"_layout":"left",
		"title":"Importieren und Exportieren",
		"displayTitle":"Importieren und Exportieren",
		"body":"Es gibt zwei Methoden, um Inhalt und Gestaltung von Werbeanzeigen in großem Umfang per Bulkimport zu importieren:<br><ul><li>Verwendung eines durch Tabstopp getrennten Dokuments oder einer Datei mit Komma-getrennten Werten (CSV).</li><li>Verwendung der vorformatierten Excel-Vorlage.</li></ul><br>Wähle bei beiden Methoden zuerst den <strong><img src='course/en/images/glyph-export-import.png' alt=\"Export-Import-Button\"> „Export &amp; Import</strong>“-Button aus.",
		"instruction":"",
		"_isComplete": false,
		"_pageLevelProgress": {
			"_isEnabled": true
		}
	},
	{
		"_id":"c-500r",
		"_parentId":"b-500",
		"_type":"component",
		"_component":"graphic",
		"_classes":"",
		"_layout":"right",
		"title":"",
		"displayTitle":"",
		"body":"",
		"instruction":"",
		"_graphic": {
			"alt": "UI zum „Export &amp; Import“-Button",
			"src": "course/en/images/import_export.png"
		},
		"_pageLevelProgress": {
			"_isEnabled": false
		},
		"_isComplete": true
	},
	{
		"_id":"c-510",
		"_parentId":"b-510",
		"_type":"component",
		"_component":"text",
		"_classes":"",
		"_layout":"full",
		"title":"Exportieren in großem Umfang",
		"displayTitle":"Exportieren in großem Umfang",
		"body":"Wenn du Kampagnen, Anzeigengruppen oder Werbeanzeigen ausgewählt hast und auf „Vorlage herunterladen“ klickst, wird eine vorformatierte Tabelle oder Textdatei heruntergeladen. Sie enthält alle Informationen für den Bulkexport. Das kann hilfreich sein, wenn du in großem Umfang vorhandene Werbeobjekte bearbeiten oder basierend auf vorhandenen Objekten neue erstellen möchtest.",
		"instruction":"",
		"_isComplete": true,
		"_pageLevelProgress": {
			"_isEnabled": true
		}
	},
	{
		"_id":"c-520",
		"_parentId":"b-520",
		"_type":"component",
		"_component":"graphic",
		"_classes":"",
		"_layout":"full",
		"title":"Importieren in großem Umfang ",
		"displayTitle":"Importieren in großem Umfang ",
		"body":"Lade die Excel-Vorlage herunter, um den Bulk Upload zu vereinfachen. Stattdessen kannst du auch eine CSV-Datei hochladen – oder Einträge daraus kopieren und einfügen – und Feldnamen manuell abgleichen.<br><br>Nachdem der Inhalt der Werbeanzeigen im CSV- oder Excel-Format bereitliegt, kannst du „Werbeanzeigen auf einmal importieren“ auswählen und den Inhalt sowie die zugehörigen Bilder hochladen.",
		"instruction":"",
		"_graphic": {
			"alt": "Bulkimport-Text, Excel-Datei, Bilder",
			"src": "course/en/images/bulk_import.png"
		},
		"_isComplete": true,
		"_pageLevelProgress": {
			"_isEnabled": true
		}
	},
	{
		"_id":"c-530",
		"_parentId":"b-530",
		"_type":"component",
		"_component":"text",
		"_classes":"",
		"_layout":"full",
		"title":"Bearbeiten in großem Umfang",
		"displayTitle":"Bearbeiten in großem Umfang mit dem Export-und-Import-Tool",
		"body":"Wähle für die Bulkbearbeitung den „Export &amp; Import“-Button aus und dann „<strong>Alle importieren</strong>“. <br><br>Du kannst auch die Kontrollkästchen für bestimmte Kampagnen, Anzeigengruppen oder Werbeanzeigen aktivieren, um sie zu gruppieren und gebündelt zu bearbeiten. Nimm deine Bearbeitungen in Excel vor und importiere die aktualisierte Datei. Überprüfe dann die Änderungen und veröffentliche sie. <!--You can find more detailed instructions in the Help Center.<br><br><center style='background-color:red;color:white;'>NOTE: Help Center + Facebook for Business links are not available yet.<br>They'll be added as soon as they go live, and before this course is published.</center><br><br><cite>Explore bulk operations in greater detail on the Facebook for Business website, including a full list of fields included in the upload template.</cite>-->",
		"instruction":"",
		"_pageLevelProgress": {
			"_isEnabled": true
		},
		"_isComplete": true
	},
	{
		"_id":"c-599",
		"_parentId":"b-599",
		"_type":"component",
		"_component":"co-jump",
		"_classes":"color-test",
		"_preLinkBody":"Als Nächstes sehen wir uns noch einige andere ",
		"_linkBody":"erweiterte Funktionen",
		"_postLinkBody":" des Werbeanzeigenmanagers an.",
		"_link":"#/id/co-600",
		"_graphic":"adapt/css/assets/icon_nextPage.png",
		"_pageLevelProgress": {
			"_isEnabled": false
		},
		"_isComplete": false
	},



	{
		"_id":"c-600",
		"_parentId":"b-600",
		"_type":"component",
		"_component":"text",
		"_classes":"",
		"_layout":"full",
		"title":"",
		"displayTitle":"",
		"body":"Einige Werbetreibende und Agenturen verwalten regelmäßig Tausende von Facebook-Werbeanzeigen. Die folgenden Tools und Funktionen wurden speziell für große Werbetreibende entwickelt. Sie können aber von jedem verwendet werden, der Facebook-Werbung organisieren und optimieren möchte.",
		"instruction":"",
		"_isComplete": false,
		"_pageLevelProgress": {
			"_isEnabled": false
		}
	},
	{
		"_id":"c-610",
		"_parentId":"b-610",
		"_type":"component",
		"_component":"graphic",
		"_classes":"",
		"_layout":"full",
		"title":"Kampagnen mit Markierungen gruppieren",
		"displayTitle":"Kampagnen mit Markierungen gruppieren",
		"body":"Mit Markierungen lassen sich Kampagnen in Gruppen organisieren, sodass sie leichter gefunden und bearbeitet werden können. ",
		"instruction":"",
		"_graphic": {
			"alt": "Markierungs-UI",
			"src": "course/en/images/tags.png"
		},
		"_isComplete": false,
		"_pageLevelProgress": {
			"_isEnabled": true
		}
	},
	{
		"_id":"c-612",
		"_parentId":"b-610",
		"_type":"component",
		"_component":"text",
		"_classes":"",
		"_layout":"full",
		"title":"",
		"displayTitle":"",
		"body":"<ol><li>Navigiere im Werbeanzeigenmanager zum Bereich „<strong>Kampagnen</strong>“.<br><cite>Hinweis: Möglicherweise musst du deine Filter anpassen, um die Kampagnen anzuzeigen, die du markieren möchtest.</cite></li><br><li>Wähle die zu markierenden Kampagnen aus und klicke auf den <strong><img src='course/en/images/tag.png' alt=\"Markieren-Button\"> „Markieren“</strong>-Button.</li><br><li>Gib einen neuen Namen für die Markierung ein oder wähle eine vorhandene Markierung aus.</li><br><li>Klicke auf „<strong>Anwenden</strong>“. Dadurch wird die Markierung gespeichert und du kannst sie auf andere Kampagnen anwenden.</li></ol>",
		"instruction":"",
		"_isComplete": false,
		"_pageLevelProgress": {
			"_isEnabled": false
		}
	},
	{
		"_id":"c-620",
		"_parentId":"b-620",
		"_type":"component",
		"_component":"graphic",
		"_classes":"",
		"_layout":"full",
		"title":"Zielgruppen aufteilen",
		"displayTitle":"Zielgruppen aufteilen",
		"body":"Mithilfe von Split-Tests kannst du verschiedene Variablen deiner Werbekampagnen testen, damit du siehst, was am besten funktioniert. Baue deinen Erfolg dann weiter aus und verbessere zukünftige Medienpläne.<br><br>Im Werbeanzeigenmanager kannst du deine Zielgruppe teilen und überprüfen, wie sich die Auslieferungseinstellungen auf die Performance der Kampagne auswirken. Teste beispielsweise, wie erfolgreich die Werbeanzeige ist, wenn du mit ihr nur bestimmte Altersgruppen oder ein spezielles Geschlecht ansprichst. Du kannst eine Zielgruppe beliebig oft aufteilen.<br><br>Wähle die Kampagne aus und wähle dann im „<strong><img src='course/en/images/glyph-copy.png' alt=\"Duplizieren-Button\"> Duplizieren</strong>“-Menü „<strong>Zielgruppen aufteilen</strong>“ aus.",
		"instruction":"",
		"_graphic": {
			"alt": "Bulkimport-Text, Excel-Datei, Bilder",
			"src": "course/en/images/split_test.png"
		},
		"_isComplete": false,
		"_pageLevelProgress": {
			"_isEnabled": true
		}
	},
	{
		"_id":"c-622",
		"_parentId":"b-620",
		"_type":"component",
		"_component":"graphic",
		"_classes":"",
		"_layout":"full",
		"title":"Split-Test durchführen",
		"displayTitle":"",
		"body":"Sehen wir uns einmal an, ob Werbeanzeigen, die sich ursprünglich an alle Eltern kleiner Kinder richteten, besser funktionieren, wenn wir nur Väter, nur Mütter oder Eltern im Allgemeinen ansprechen. Wir erstellen zwei neue Anzeigengruppen: eine, die nur Männer und eine, die nur Frauen anspricht. Die ursprüngliche Anzeigengruppe, die sich an jedes Geschlecht richtet, bleibt aktiv. ",
		"instruction":"",
		"_graphic": {
			"alt": "Bulkimport-Text, Excel-Datei, Bilder",
			"src": "course/en/images/split_audience.png"
		},
		"_isComplete": false,
		"_pageLevelProgress": {
			"_isEnabled": true
		}
	},
	{
		"_id":"c-624",
		"_parentId":"b-620",
		"_type":"component",
		"_component":"text",
		"_classes":"",
		"_layout":"full",
		"title":"",
		"displayTitle":"",
		"body":"Wenn du eine Zielgruppe aufteilst, kannst du angeben, ob dein Budget unter neuen Anzeigengruppen aufgeteilt werden soll oder ob du deine Budgets stattdessen duplizieren möchtest. Du hast auch die Möglichkeit, neue Budgets für die neuen Anzeigengruppen zu erstellen. <a href='https://www.facebook.com/business/help/1738164643098669' target='_blank'>Erfahre mehr über Split-Tests</a> mit Facebook Business.",
		"instruction":"",
		"_isComplete": false,
		"_pageLevelProgress": {
			"_isEnabled": false
		}
	},
	{
		"_id":"c-630",
		"_parentId":"b-630",
		"_type":"component",
		"_component":"graphic",
		"_classes":"",
		"_layout":"full",
		"title":"Automatische Regeln erstellen",
		"displayTitle":"Automatische Regeln erstellen",
		"body":"Du kannst Regeln auf Ebene der Kampagne, Werbeanzeigengruppe oder Werbeanzeige erstellen. Regeln aktualisieren die Anzeigenauslieferung oder benachrichtigen dich über Änderungen an deinen Kampagnen, Anzeigengruppen oder Werbeanzeigen. Mit Regeln kannst du unter anderem Folgendes:<br><br><ul><li>Eine Werbeanzeige mit schlechter Performance deaktivieren.</li><li>Das Budget deiner Anzeigengruppe erhöhen, wenn mehr Personen auf deine Werbeanzeige klicken.</li><li>Eine Benachrichtigung an deine E-Mail-Adresse senden lassen, wenn die Gesamtanzahl der Personen, die deine Werbeanzeige ansehen, unter einen bestimmten Wert sinkt.</li></ul><br>So erstellst du eine Regel:<ol><li>Wähle ein oder mehrere Werbeobjekte aus, um den Button „<strong>Regel erstellen</strong>“ zu aktivieren, und klicke darauf.</li>",
		"instruction":"",
		"_graphic": {
			"alt": "Eine Regel erstellen",
			"src": "course/en/images/rule_add.png"
		},
		"_isComplete": false,
		"_pageLevelProgress": {
			"_isEnabled": true
		}
	},
	{
		"_id":"c-640",
		"_parentId":"b-640",
		"_type":"component",
		"_component":"graphic",
		"_classes":"",
		"_layout":"full",
		"title":"Automatische Regeln erstellen",
		"displayTitle":"",
		"body":"<ol start='2'><li>Wähle im Dialogfeld „Regel erstellen“ Folgendes aus: <a href='https://www.facebook.com/business/help/975877422460996' target='_blank'>Die Kriterien, die die Regel auslösen</a>, <a href='https://www.facebook.com/business/help/192277077825914' target='_blank'>die Handlung, die deine Regel mit den ausgewählten Werbeobjekten ausführt</a>, und für welche aktive Kampagne, Anzeigengruppe oder Werbeanzeige die Regel wirksam wird.</li>",
		"instruction":"",
		"_graphic": {
			"alt": "Eine Regel festlegen",
			"src": "course/en/images/rule_create.png"
		},
		"_isComplete": false,
		"_pageLevelProgress": {
			"_isEnabled": false
		}
	},
	{
		"_id":"c-650",
		"_parentId":"b-650",
		"_type":"component",
		"_component":"graphic",
		"_classes":"",
		"_layout":"full",
		"title":"Regeln verwalten",
		"displayTitle":"",
		"body":"Um deine Regeln zu verwalten, navigiere in deinem Werbekonto zum Bereich „<strong>Automatische Regeln</strong>“. Hier kannst du Regeln bearbeiten bzw. ein- oder ausschalten.",
		"instruction":"",
		"_graphic": {
			"alt": "Regeln verwalten",
			"src": "course/en/images/rules_manage.png"
		},
		"_isComplete": false,
		"_pageLevelProgress": {
			"_isEnabled": true
		}
	},
	{
		"_id":"c-652",
		"_parentId":"b-650",
		"_type":"component",
		"_component":"text",
		"_classes":"",
		"_layout":"full",
		"title":"",
		"displayTitle":"",
		"body":"Regeln können deine Anzeigenverwaltung zwar rationalisieren, du solltest sie aber trotzdem im Werbeanzeigenmanager im Auge behalten.",
		"instruction":"",
		"_isComplete": false,
		"_pageLevelProgress": {
			"_isEnabled": false
		}
	},
	{
		"_id":"c-699",
		"_parentId":"b-699",
		"_type":"component",
		"_component":"co-jump",
		"_classes":"color-test",
		"_preLinkBody":"Wir haben viele Themen besprochen. Kommen wir nun zu einem kurzen ",
		"_linkBody":"Wissenstest",
		"_postLinkBody":".",
		"_link":"#/id/co-700",
		"_graphic":"adapt/css/assets/icon_nextPage.png",
		"_pageLevelProgress": {
			"_isEnabled": false
		},
		"_isComplete": false
	},



	{
		"_id":"c-700",
		"_parentId":"b-700",
		"_type":"component",
		"_component":"mcq",
		"_classes":"",
		"_layout":"full",
		"_attempts":1,
		"_questionWeight":1,
		"_isRandom":false,
		"_selectable":1,
		"title": "Frage 1 von 4",
		"displayTitle": "Frage 1 von 4",
		"body": "Du hast eine Anzeigengruppe bearbeitet. Worauf wirkt sich die Änderung aus?",
		"instruction": "",
		"_setCompletionOn": "inview",
		"_items": [
			{
				"text": "Nur direkt auf die Anzeige",
				"_shouldBeSelected":false
			},
			{
				"text": "Nur direkt auf die Anzeigengruppe",
				"_shouldBeSelected":false
			},
			{
				"text": "Auf die Anzeigengruppe und alle enthaltenen Anzeigen",
				"_shouldBeSelected":true
			},
			{
				"text": "Auf die Anzeigengruppe und die Kampagne, zu der sie gehört.",
				"_shouldBeSelected":false
			}
		],
		"_feedback":{
			"correct":"Richtig. Aktualisierungen an Anzeigengruppen wirken sich auf die Anzeigengruppe und alle Anzeigen aus, die sie enthält. Änderungen auf Anzeigengruppenebene werden nicht nach oben hin auf übergeordnete Kampagnen angewendet.",
			"_incorrect": {
				"notFinal": "",
				"final": "Leider falsch. Aktualisierungen an Anzeigengruppen wirken sich auf die Anzeigengruppe und alle Anzeigen aus, die sie enthält. Änderungen auf Anzeigengruppenebene werden nicht nach oben hin auf übergeordnete Kampagnen angewendet."
			}
		},
		"_buttons": {
				"_submit": {
					"buttonText": "Senden",
					"ariaLabel": "Klicke hier, um deine Antwort zu senden."
				},
				"_reset": {
					"buttonText": "Zurücksetzen",
					"ariaLabel": ""
				},
				"_showCorrectAnswer": {
					"buttonText": "Richtige Antwort",
					"ariaLabel": ""
				},
				"_hideCorrectAnswer": {
					"buttonText": "Meine Antwort",
					"ariaLabel": ""
				},
				"_showFeedback": {
					"buttonText": "Feedback anzeigen",
					"ariaLabel": ""
				},
				"remainingAttemptsText": "Verbleibende Versuche",
				"remainingAttemptText": "Letzter Versuch"
			},
		"_pageLevelProgress": {
			"_isEnabled": true
		},
		"_isComplete": true
	},
	{
		"_id":"c-710",
		"_parentId":"b-710",
		"_type":"component",
		"_component":"mcq",
		"_classes":"",
		"_layout":"full",
		"_attempts":1,
		"_questionWeight":1,
		"_isRandom":false,
		"_selectable":1,
		"title": "Frage 2 von 4",
		"displayTitle": "Frage 2 von 4",
		"body": "Welche Handlung kannst du mithilfe von Regeln automatisieren?",
		"instruction": "",
		"_setCompletionOn": "inview",
		"_items": [
			{
				"text": "Zielgruppen aufteilen, um die Auslieferung zu optimieren",
				"_shouldBeSelected":false
			},
			{
				"text": "Das Werbebudget basierend auf der Anzeigen-Performance anpassen",
				"_shouldBeSelected":true
			},
			{
				"text": "Kampagnen mit Kampagnen-Markierungen organisieren",
				"_shouldBeSelected":false
			},
			{
				"text": "Spalten oder exportierbare Berichte anpassen",
				"_shouldBeSelected":false
			}
		],
		"_feedback":{
			"correct":"Richtig! Eine automatische Handlung (wie das Erhöhen des Budgets) wird durch eine Ursache ausgelöst (wie eine Änderung der Performance)",
			"_incorrect": {
				"notFinal": "",
				"final": "Leider falsch. Eine automatische Handlung (wie das Erhöhen des Budgets) wird durch eine Ursache ausgelöst (wie eine Änderung der Performance)"
			}
		},
		"_buttons": {
				"_submit": {
					"buttonText": "Senden",
					"ariaLabel": "Klicke hier, um deine Antwort zu senden."
				},
				"_reset": {
					"buttonText": "Zurücksetzen",
					"ariaLabel": ""
				},
				"_showCorrectAnswer": {
					"buttonText": "Richtige Antwort",
					"ariaLabel": ""
				},
				"_hideCorrectAnswer": {
					"buttonText": "Meine Antwort",
					"ariaLabel": ""
				},
				"_showFeedback": {
					"buttonText": "Feedback anzeigen",
					"ariaLabel": ""
				},
				"remainingAttemptsText": "Verbleibende Versuche",
				"remainingAttemptText": "Letzter Versuch"
			},
		"_pageLevelProgress": {
			"_isEnabled": true
		},
		"_isComplete": true
	},
	{
		"_id":"c-720",
		"_parentId":"b-720",
		"_type":"component",
		"_component":"mcq",
		"_classes":"",
		"_layout":"full",
		"_attempts":1,
		"_questionWeight":1,
		"_isRandom":false,
		"_selectable":1,
		"title": "Frage 3 von 4",
		"displayTitle": "Frage 3 von 4",
		"body": "Mit welchen der folgenden Tools kannst du eine Werbeanzeigengruppe nach Alter und Geschlecht aufteilen, um verschiedene Zielgruppen anzusprechen?",
		"instruction": "",
		"_setCompletionOn": "inview",
		"_items": [
			{
				"text": "Zielgruppe aufteilen",
				"_shouldBeSelected":true
			},
			{
				"text": "Excel",
				"_shouldBeSelected":false
			},
			{
				"text": "Auf einmal bearbeiten",
				"_shouldBeSelected":false
			},
			{
				"text": "Duplizieren",
				"_shouldBeSelected":false
			}
		],
		"_feedback":{
			"correct":"Richtig! Mit „Zielgruppe aufteilen“ kannst du eine Werbeanzeigengruppe nach Alter und Geschlecht aufteilen.",
			"_incorrect": {
				"notFinal": "",
				"final": "Das stimmt leider nicht. Mit „Zielgruppe aufteilen“ kannst du eine Werbeanzeigengruppe nach Alter und Geschlecht aufteilen."
			}
		},
		"_buttons": {
				"_submit": {
					"buttonText": "Senden",
					"ariaLabel": "Klicke hier, um deine Antwort zu senden."
				},
				"_reset": {
					"buttonText": "Zurücksetzen",
					"ariaLabel": ""
				},
				"_showCorrectAnswer": {
					"buttonText": "Richtige Antwort",
					"ariaLabel": ""
				},
				"_hideCorrectAnswer": {
					"buttonText": "Meine Antwort",
					"ariaLabel": ""
				},
				"_showFeedback": {
					"buttonText": "Feedback anzeigen",
					"ariaLabel": ""
				},
				"remainingAttemptsText": "Verbleibende Versuche",
				"remainingAttemptText": "Letzter Versuch"
			},
		"_pageLevelProgress": {
			"_isEnabled": true
		},
		"_isComplete": true
	},
	{
		"_id":"c-730",
		"_parentId":"b-730",
		"_type":"component",
		"_component":"mcq",
		"_classes":"",
		"_layout":"full",
		"_attempts":1,
		"_questionWeight":1,
		"_isRandom":false,
		"_selectable":1,
		"title": "Frage 4 von 4",
		"displayTitle": "Frage 4 von 4",
		"body": "Welche Handlung kann sich auf die Kontinuität von Datenberichten auswirken? ",
		"instruction": "",
		"_setCompletionOn": "inview",
		"_items": [
			{
				"text": "Bearbeiten einer Anzeigengruppe",
				"_shouldBeSelected":true
			},
			{
				"text": "Duplizieren einer Anzeigengruppe",
				"_shouldBeSelected":false
			},
			{
				"text": "Exportieren einer Anzeigengruppe",
				"_shouldBeSelected":false
			},
			{
				"text": "Löschen einer Anzeigengruppe",
				"_shouldBeSelected":false
			}
		],
		"_feedback":{
			"correct":"Richtig! Es kann schwierig sein, Werbekennzahlen vor und nach einer Bearbeitung zu unterscheiden. Das Duplizieren, Exportieren oder Löschen von Anzeigen hat auf diese Kennzahlen keinen Einfluss.",
			"_incorrect": {
				"notFinal": "",
				"final": "Nicht ganz. Es kann schwierig sein, Werbekennzahlen vor und nach einer Bearbeitung zu unterscheiden. Das Duplizieren, Exportieren oder Löschen von Anzeigen hat auf diese Kennzahlen keinen Einfluss. "
			}
		},
		"_buttons": {
				"_submit": {
					"buttonText": "Senden",
					"ariaLabel": "Klicke hier, um deine Antwort zu senden."
				},
				"_reset": {
					"buttonText": "Zurücksetzen",
					"ariaLabel": ""
				},
				"_showCorrectAnswer": {
					"buttonText": "Richtige Antwort",
					"ariaLabel": ""
				},
				"_hideCorrectAnswer": {
					"buttonText": "Meine Antwort",
					"ariaLabel": ""
				},
				"_showFeedback": {
					"buttonText": "Feedback anzeigen",
					"ariaLabel": ""
				},
				"remainingAttemptsText": "Verbleibende Versuche",
				"remainingAttemptText": "Letzter Versuch"
			},
		"_pageLevelProgress": {
			"_isEnabled": true
		},
		"_isComplete": true
	},
	{
		"_id":"c-799",
		"_parentId":"b-799",
		"_type":"component",
		"_component":"co-jump",
		"_classes":"color-test",
		"_preLinkBody":"Wenn dir keine Pop-up-Meldung angezeigt wurde, dass der Kurs abgeschlossen ist, dann",
		"_linkBody":"klicke bitte hier,",
		"_postLinkBody":" um sicherzustellen, dass alle Fortschrittsbalken vollständig sind.",
		"_link":"#",
		"_graphic":"adapt/css/assets/complete_icon_small.png",
		"_pageLevelProgress": {
			"_isEnabled": false
		},
		"_isComplete": true
	}
]
